96149 962058 525
705603 761066 424
549424 790771 509
824615 983576 525
261081 758840 509
884546 952644 507
765813 807642 468
875494 942125 507
995176 997834 440
248872 541925 470
120631 170209 383
415018 978352 525
721765 992615 525
897292 926924 476
589919 978616 525
294426 558107 470
163264 464619 449
195554 822308 509
969915 992032 458
67404 207754 383
252595 330557 407
101335 356350 443
260386 450219 449
272936 601261 470
752316 972209 525
482608 532274 470
392600 438369 449
591808 704182 509
922935 928229 476
908426 937366 476
438537 474253 444
854424 929598 476
932328 934808 414
106915 454617 449
383240 465591 449
770999 973126 525
882659 993773 507
473522 757246 509
812238 963644 525
343952 753839 509
383382 444641 449
520999 877951 525
397679 420295 449
956483 964714 414
93759 582082 470
253769 792981 509
80308 270203 443
560781 625004 447
142150 694339 509
175912 742835 509
410354 870702 525
471671 597002 470
700119 737689 504
969146 980959 458
366648 850066 525
885171 919191 476
232342 680601 509
486599 942497 525
111106 718919 509
101123 640855 509
905736 916389 476
948959 956635 414
178358 942502 525
190607 984018 525
404527 741473 509
274959 779255 509
935788 961568 507
73313 682236 509
782348 931239 525
163289 205942 365
955542 961022 414
256533 935451 525
955202 963640 414
544890 919281 525
502158 622936 470
934054 953974 507
722610 947119 525
496998 908490 525
14482 459799 449
635466 784720 504
251963 837121 509
896989 967106 507
813598 955426 525
292246 639757 509
182930 764009 509
69096 262986 443
316453 492157 449
380548 880794 525
683440 691391 398
629518 703029 442
977573 978356 383
218333 529620 470
749587 845985 525
293790 405166 441
68494 829853 509
821451 977201 525
377198 902726 525
345950 438129 449
172151 475529 449
913390 921795 432
508048 924326 525
390084 880572 525
702141 960747 525
554339 619752 447
150176 178072 383
728667 762859 424
754698 938383 525
308027 944105 525
764626 896109 525
868873 898815 445
127071 743050 509
866937 874034 432
522640 722162 509
401743 459489 449
661032 773084 504
233821 723145 509
762741 845487 525
496811 737368 509
385905 832566 509
249735 826935 509
593616 838157 525
963259 965302 383
376383 896080 525
647595 875512 525
641843 865803 525
568936 827855 509
898791 967019 507
941187 983762 458
194177 860063 525
2051 411495 449
64356 833719 509
445801 814672 509
921214 976508 507
643198 868190 525
561966 640053 509
790019 791284 375
508580 789756 509
268063 457803 449
93035 621042 470
506592 778920 509
206726 426151 449
855603 978439 507
2908 205749 383
770304 825750 468
230774 548448 470
734684 913309 525
104201 154960 375
791303 874888 525
534313 657373 509
268945 951030 525
989395 993131 352
346402 923449 525
555752 774546 509
428091 452367 400
59852 130283 354
711929 746706 424
794958 840877 525
626128 808202 509
520281 562276 452
375604 771774 509
105851 688340 509
966028 967805 365
894164 994389 507
356438 440046 449
943474 967838 414
656355 868548 525
46835 785975 509
397032 882092 525
378676 715388 509
72964 349485 443
591850 649970 509
268858 550364 470
128147 894702 525
43486 339515 443
964523 971965 458
942833 946756 383
205403 625417 470
3752 961857 525
584268 951429 525
147113 383970 443
611197 642638 509
394237 646814 509
83380 186413 383
227964 446193 449
915261 987425 507
616015 653453 509
888215 979827 507
63538 366420 443
826230 943747 525
560466 873141 525
685138 686591 354
805391 878566 525
801210 898640 525
80897 395984 443
490777 570155 470
979676 982300 427
91806 501177 449
728085 957048 525
537544 704909 509
452494 975725 525
863779 951330 507
936700 975559 507
261357 494696 449
355715 585028 470
255683 949501 525
292788 649387 509
260124 507644 449
47341 899585 525
208554 254895 443
593186 947415 525
664666 756186 504
515468 643384 509
480307 715820 509
105163 320623 443
196221 381551 443
582463 645315 509
258028 592170 470
990270 990866 321
994216 994223 166
929144 944759 507
806271 893667 525
931752 985444 507
905965 936418 476
697880 858554 525
128680 710714 509
655218 967760 525
287669 913232 525
614919 859959 525
835445 980990 525
205166 506909 449
745189 750787 393
929020 965644 507
485894 585127 470
589810 823946 509
421420 735295 509
49664 902859 525
407369 850064 525
721715 830209 468
396414 938200 525
495697 849438 525
311447 883021 525
356757 612335 470
950978 953492 414
968445 968987 308
538158 763895 509
554147 814401 509
367929 595084 470
43769 113873 354
91368 854295 525
402159 524869 470
