294316 334520 384
921926 310566 525
991345 358257 525
754061 304981 509
364455 957126 525
444085 248470 449
135748 946969 525
448418 112601 449
44693 34837 324
66587 195947 383
423159 781251 509
966361 855837 507
775670 556659 509
649435 525417 509
967743 226596 525
816370 262059 509
561115 252502 470
572624 66666 470
610758 326685 470
885850 975212 507
798016 844139 525
737886 447968 509
305314 186304 443
560568 350006 470
735345 141359 509
545952 672708 509
436814 26518 449
528545 726688 509
583176 177980 470
252105 550919 470
918780 582680 525
327182 479895 449
835181 414011 509
546560 445939 470
740695 946615 525
935356 52916 525
790754 673242 504
500883 96068 449
859546 575655 525
960277 109096 525
717014 20434 509
781803 668032 504
46951 824552 509
394721 630127 509
516737 646825 509
695250 435517 509
229505 22433 386
915411 578890 525
436443 976176 525
24830 691342 509
922791 960185 507
744258 227750 509
147632 759345 509
323818 521382 470
335001 284095 389
630477 566219 509
818733 412280 509
234251 865683 525
236833 628971 509
10015 267774 443
790001 705265 468
703290 533710 509
241902 132906 443
112601 192549 383
109082 651634 509
883890 546077 525
126024 142353 344
773827 273655 509
901698 611849 525
795037 750903 468
410148 939718 525
317122 228881 443
866203 65577 525
608769 103036 470
208753 618783 470
885013 998753 507
838252 588303 525
46668 80154 351
721208 673472 504
272702 344495 389
839310 670797 525
404776 965333 525
813149 692807 504
753193 229052 509
304656 62435 443
979954 229009 525
2153 811280 509
972093 868355 507
876857 580862 525
485595 85610 449
199646 370608 443
598567 552102 434
473115 159439 449
632256 194324 509
832911 419162 509
53023 672221 509
89959 457798 449
151760 417313 449
150606 419157 449
646364 969465 525
481591 626319 470
198474 997947 525
951803 170568 525
866303 828660 525
265634 866102 525
914269 465279 525
750915 27041 509
17382 224030 386
186480 163842 365
932557 19391 525
583003 985579 525
205816 187167 360
443378 871779 525
604479 108188 470
290936 250843 407
77653 286731 443
391366 790331 509
284679 857374 525
475103 665186 509
686034 740736 504
45493 114509 354
720220 796407 468
141549 251806 443
20438 328028 443
929851 952994 507
861622 27059 525
452779 581643 470
214225 896156 525
453422 332908 449
518548 258563 470
97956 596200 470
59498 489321 449
900735 344176 525
860899 375838 525
523566 546934 452
630779 569059 509
661442 350999 509
365466 802990 509
117009 900107 525
645223 46860 509
367307 506845 449
73918 820085 509
88488 802347 509
230446 56115 386
135255 263198 443
828881 233210 509
859397 888378 445
236736 274338 407
232555 97635 443
164380 270325 443
644568 795158 504
839383 820214 525
660361 719054 504
623205 777369 509
133366 268428 443
338433 500672 449
289477 412351 449
834961 892169 525
214698 579611 470
948283 349952 525
842808 777164 525
97367 216411 386
179747 334102 443
490748 926505 525
431736 655127 509
196831 590509 470
964490 36214 525
410723 624851 470
269472 33928 443
916425 402838 525
816559 254858 509
903509 620241 525
181413 252676 443
512410 910314 525
832286 974897 525
260267 675095 509
266266 871837 525
891505 446012 525
205939 896457 525
372518 637674 509
65789 83553 351
742387 30279 509
633970 153111 509
655130 903442 525
701242 85760 509
306280 32007 443
340617 723993 509
652247 522030 509
976668 678861 525
946548 323160 525
653758 721019 504
512459 920023 525
592856 918168 525
880239 798794 525
814625 766961 468
950673 880413 507
850513 693060 525
910692 484484 525
846170 80027 525
387926 547413 470
165786 208410 373
93624 20607 351
932402 745870 525
56841 423276 449
424731 3390 449
260640 592693 470
724408 773098 468
512716 317265 470
691266 907159 525
630263 20096 509
674121 580936 509
900508 524634 525
788201 325405 509
9118 148576 375
919635 397043 525
210193 599625 470
119657 303816 443
620232 52060 470
49686 677072 509
989539 988620 321
194666 250179 443
581313 919074 525
537481 94029 470
750543 742951 393
515393 380806 470
763046 189514 509
475947 177759 449
714147 264148 509
17369 237470 443
412723 937003 525
148717 622916 470
536629 268374 470
926731 671065 525
834637 490622 509
862341 824176 525
479242 57008 449
588559 60556 470
490286 640244 509
668788 240829 509
383195 184181 443
135839 660445 509
887898 611785 525
352408 602046 470
390137 369776 436
353720 317065 441
820984 502436 509
454185 871817 525
770809 380916 509
542882 605446 452
385742 919427 525
943826 864984 507
976434 46590 525
439744 980924 525
686833 622736 509
221753 584232 470
321122 871796 525
244677 209020 443
997785 111290 525
325270 387923 441
481065 678989 509
704987 816253 468
181426 159172 370
688070 952234 525
54292 745156 509
71886 440034 449
664584 15712 509
819222 155223 509
576506 773170 509
136148 263339 443
395906 872104 525
361776 717027 509
258105 606452 470
926047 255891 525
717741 251317 509
643813 713011 504
930306 863004 476
529264 625936 452
536380 731539 509
578170 590671 434
476695 164260 449
544909 655483 509
694176 878335 525
324911 270682 389
651505 461058 509
534020 561616 452
847366 895795 445
278643 105472 443
16453 718894 509
361362 248398 441
970211 519379 525
475613 414722 444
896587 519082 525
40658 432967 449
250621 133032 443
537842 241520 470
811496 82752 509
411208 505672 444
475291 736118 509
776353 126797 509
711380 824577 468
